Transit System Analysis Report – STA 9750 2024 Submission Material
…
# A tibble: 1 × 2
  Mode           total_VRM
  <chr>              <dbl>
1 Aerial Tramway    292860

# A tibble: 1 × 2
  Agency                   total_UPT
  <chr>                        <dbl>
1 Enterprise Holdings, LLC       858

# A tibble: 1,141 × 6
   `NTD ID` Agency                                metro_area Mode     UPT    VRM
      <int> <chr>                                 <chr>      <chr>  <dbl>  <dbl>
 1        1 King County                           Seattle--… Dema… 6.63e5 1.29e7
 2        1 King County                           Seattle--… Ferr… 4.00e5 5.12e4
 3        1 King County                           Seattle--… Moto… 5.40e7 6.16e7
 4        1 King County                           Seattle--… Stre… 1.12e6 1.80e5
 5        1 King County                           Seattle--… Trol… 9.58e6 2.64e6
 6        1 King County                           Seattle--… Vanp… 7.03e5 4.41e6
 7        2 Spokane Transit Authority             Spokane, … Dema… 3.10e5 4.04e6
 8        2 Spokane Transit Authority             Spokane, … Moto… 6.60e6 6.49e6
 9        2 Spokane Transit Authority             Spokane, … Vanp… 9.06e4 9.06e5
10        3 Pierce County Transportation Benefit… Seattle--… Dema… 2.15e5 3.44e6
# ℹ 1,131 more rows

# A tibble: 1,307 × 9
   `NTD ID` Agency    metro_area Mode     UPT    VRM `Agency Name` `Total Fares`
      <dbl> <chr>     <chr>      <chr>  <dbl>  <dbl> <chr>                 <dbl>
 1        1 King Cou… Seattle--… Dema… 6.63e5 1.29e7 King County …        740726
 2        1 King Cou… Seattle--… Dema… 6.63e5 1.29e7 King County …         91601
 3        1 King Cou… Seattle--… Ferr… 4.00e5 5.12e4 King County …       1715265
 4        1 King Cou… Seattle--… Moto… 5.40e7 6.16e7 King County …      56566150
 5        1 King Cou… Seattle--… Moto… 5.40e7 6.16e7 King County …        280187
 6        1 King Cou… Seattle--… Stre… 1.12e6 1.80e5 King County …        588495
 7        1 King Cou… Seattle--… Trol… 9.58e6 2.64e6 King County …      10123486
 8        1 King Cou… Seattle--… Vanp… 7.03e5 4.41e6 King County …       5484481
 9        2 Spokane … Spokane, … Dema… 3.10e5 4.04e6 Spokane Tran…        457699
10        2 Spokane … Spokane, … Dema… 3.10e5 4.04e6 Spokane Tran…         73585
# ℹ 1,297 more rows
# ℹ 1 more variable: Expenses <dbl>
…
